[gd_scene load_steps=6 format=2]

[ext_resource path="res://Main/Main.gd" type="Script" id=1]
[ext_resource path="res://Player/Player.tscn" type="PackedScene" id=2]
[ext_resource path="res://Main/Utility/DevConsole.tscn" type="PackedScene" id=3]
[ext_resource path="res://Main/GUI/GUI.tscn" type="PackedScene" id=4]

[sub_resource type="SpatialMaterial" id=1]

[node name="Main" type="Navigation"]
script = ExtResource( 1 )

[node name="Player" parent="." groups=[
"pausable",
] instance=ExtResource( 2 )]

[node name="GUI" parent="." instance=ExtResource( 4 )]

[node name="DevConsole" parent="." instance=ExtResource( 3 )]

[node name="Draw" type="ImmediateGeometry" parent="."]
material_override = SubResource( 1 )
