[gd_scene load_steps=3 format=2]

[ext_resource path="res://Player/Player.gd" type="Script" id=1]

[sub_resource type="CapsuleShape" id=1]
radius = 0.5
height = 2.0

[node name="Player" type="KinematicBody"]
collision_layer = 5
collision_mask = 5
script = ExtResource( 1 )

[node name="CollisionShape" type="CollisionShape" parent="."]
transform = Transform( 1, 0, 0, 0, 0, -1, 0, 1, 0, 0, 1.5, 0 )
shape = SubResource( 1 )

[node name="Head" type="Spatial" parent="."]
transform = Transform( 1, 0, 0, 0, 1, 0, 0, 0, 1, 0, 2.5, 0 )

[node name="Camera" type="Camera" parent="Head"]
current = true

[node name="FlashLight" type="OmniLight" parent="Head/Camera"]
visible = false
light_color = Color( 0.858824, 0.847059, 0.741176, 1 )
omni_range = 10.0
omni_attenuation = 1.51572

[node name="Hand" type="RayCast" parent="Head/Camera"]
transform = Transform( 1, 0, 0, 0, -4.37114e-08, -1, 0, 1, -4.37114e-08, 0, 0, 0 )
enabled = true
cast_to = Vector3( 0, -4, 0 )
collision_mask = 2147483650
collide_with_areas = true
